/home/akchew/scratch/nanoparticle_project/nplm_sims
Relative path, hostname, num_atoms, performance, walltime, num_nodes, num_cores
/20200120-US-sims_NPLM_rerun_stampede/US-1.3_5_0.2-NPLM-DOPC_196-300.00-5_0.0005_2000-EAM_2_ROT012_1/4_simulations/3.100/nplm_prod.log,c439-044.stampede2.tacc.utexas.edu,225696,29.298,147450.501,6,408
/20200120-US-sims_NPLM_rerun_stampede/US-1.3_5_0.2-NPLM-DOPC_196-300.00-5_0.0005_2000-EAM_2_ROT012_1/4_simulations/4.100/nplm_prod.log,c433-101.stampede2.tacc.utexas.edu,225696,29.484,146519.771,6,408
/20200120-US-sims_NPLM_rerun_stampede/US-1.3_5_0.2-NPLM-DOPC_196-300.00-5_0.0005_2000-EAM_2_ROT012_1/4_simulations/2.300/nplm_prod.log,c444-044.stampede2.tacc.utexas.edu,225696,29.107,148420.060,6,408
/20200120-US-sims_NPLM_rerun_stampede/US-1.3_5_0.2-NPLM-DOPC_196-300.00-5_0.0005_2000-EAM_2_ROT012_1/4_simulations/5.300/nplm_prod.log,c464-111.stampede2.tacc.utexas.edu,225696,29.651,145693.412,6,408
/20200120-US-sims_NPLM_rerun_stampede/US-1.3_5_0.2-NPLM-DOPC_196-300.00-5_0.0005_2000-EAM_2_ROT012_1/4_simulations/5.900/nplm_prod.log,c451-051.stampede2.tacc.utexas.edu,225696,29.815,144891.658,6,408
/20200120-US-sims_NPLM_rerun_stampede/US-1.3_5_0.2-NPLM-DOPC_196-300.00-5_0.0005_2000-EAM_2_ROT012_1/4_simulations/2.900/nplm_prod.log,c440-012.stampede2.tacc.utexas.edu,225696,29.926,144354.087,6,408
/20200120-US-sims_NPLM_rerun_stampede/US-1.3_5_0.2-NPLM-DOPC_196-300.00-5_0.0005_2000-EAM_2_ROT012_1/4_simulations/1.700/nplm_prod.log,c433-101.stampede2.tacc.utexas.edu,225696,29.416,146856.782,6,408
/20200120-US-sims_NPLM_rerun_stampede/US-1.3_5_0.2-NPLM-DOPC_196-300.00-5_0.0005_2000-EAM_2_ROT012_1/4_simulations/1.500/nplm_prod.log,c441-034.stampede2.tacc.utexas.edu,225696,29.282,147529.768,6,408
/20200120-US-sims_NPLM_rerun_stampede/US-1.3_5_0.2-NPLM-DOPC_196-300.00-5_0.0005_2000-EAM_2_ROT012_1/4_simulations/5.100/nplm_prod.log,c452-131.stampede2.tacc.utexas.edu,225696,29.741,145255.920,6,408
/20200120-US-sims_NPLM_rerun_stampede/US-1.3_5_0.2-NPLM-DOPC_196-300.00-5_0.0005_2000-EAM_2_ROT012_1/4_simulations/2.100/nplm_prod.log,c438-131.stampede2.tacc.utexas.edu,225696,29.001,148959.265,6,408
/20200120-US-sims_NPLM_rerun_stampede/US-1.3_5_0.2-NPLM-DOPC_196-300.00-5_0.0005_2000-EAM_2_ROT012_1/4_simulations/3.900/nplm_prod.log,c433-054.stampede2.tacc.utexas.edu,225696,29.121,148344.408,6,408
/20200120-US-sims_NPLM_rerun_stampede/US-1.3_5_0.2-NPLM-DOPC_196-300.00-5_0.0005_2000-EAM_2_ROT012_1/4_simulations/4.900/nplm_prod.log,c428-121.stampede2.tacc.utexas.edu,225696,29.540,146240.408,6,408
/20200120-US-sims_NPLM_rerun_stampede/US-1.3_5_0.2-NPLM-DOPC_196-300.00-5_0.0005_2000-EAM_2_ROT012_1/4_simulations/4.300/nplm_prod.log,c430-044.stampede2.tacc.utexas.edu,225696,29.200,147944.317,6,408
/20200120-US-sims_NPLM_rerun_stampede/US-1.3_5_0.2-NPLM-DOPC_196-300.00-5_0.0005_2000-EAM_2_ROT012_1/4_simulations/3.300/nplm_prod.log,c439-032.stampede2.tacc.utexas.edu,225696,29.277,147557.413,6,408
/20200120-US-sims_NPLM_rerun_stampede/US-1.3_5_0.2-NPLM-DOPC_196-300.00-5_0.0005_2000-EAM_2_ROT012_1/4_simulations/3.700/nplm_prod.log,c433-091.stampede2.tacc.utexas.edu,225696,29.145,148222.933,6,408
/20200120-US-sims_NPLM_rerun_stampede/US-1.3_5_0.2-NPLM-DOPC_196-300.00-5_0.0005_2000-EAM_2_ROT012_1/4_simulations/4.700/nplm_prod.log,c429-042.stampede2.tacc.utexas.edu,225696,30.742,140524.823,6,408
/20200120-US-sims_NPLM_rerun_stampede/US-1.3_5_0.2-NPLM-DOPC_196-300.00-5_0.0005_2000-EAM_2_ROT012_1/4_simulations/2.500/nplm_prod.log,c439-062.stampede2.tacc.utexas.edu,225696,29.685,145525.824,6,408
/20200120-US-sims_NPLM_rerun_stampede/US-1.3_5_0.2-NPLM-DOPC_196-300.00-5_0.0005_2000-EAM_2_ROT012_1/4_simulations/5.500/nplm_prod.log,c405-084.stampede2.tacc.utexas.edu,225696,29.679,145559.903,6,408
/20200120-US-sims_NPLM_rerun_stampede/US-1.3_5_0.2-NPLM-DOPC_196-300.00-5_0.0005_2000-EAM_2_ROT012_1/4_simulations/1.300/nplm_prod.log,c448-102.stampede2.tacc.utexas.edu,225696,29.428,146799.800,6,408
/20200120-US-sims_NPLM_rerun_stampede/US-1.3_5_0.2-NPLM-DOPC_196-300.00-5_0.0005_2000-EAM_2_ROT012_1/4_simulations/1.900/nplm_prod.log,c445-032.stampede2.tacc.utexas.edu,225696,29.057,148672.976,6,408
/20200120-US-sims_NPLM_rerun_stampede/US-1.3_5_0.2-NPLM-DOPC_196-300.00-5_0.0005_2000-EAM_2_ROT012_1/4_simulations/5.700/nplm_prod.log,c469-111.stampede2.tacc.utexas.edu,225696,29.637,145765.941,6,408
/20200120-US-sims_NPLM_rerun_stampede/US-1.3_5_0.2-NPLM-DOPC_196-300.00-5_0.0005_2000-EAM_2_ROT012_1/4_simulations/2.700/nplm_prod.log,c440-024.stampede2.tacc.utexas.edu,225696,29.240,147745.085,6,408
/20200120-US-sims_NPLM_rerun_stampede/US-1.3_5_0.2-NPLM-DOPC_196-300.00-5_0.0005_2000-EAM_2_ROT012_1/4_simulations/4.500/nplm_prod.log,c429-121.stampede2.tacc.utexas.edu,225696,29.274,147571.620,6,408
/20200120-US-sims_NPLM_rerun_stampede/US-1.3_5_0.2-NPLM-DOPC_196-300.00-5_0.0005_2000-EAM_2_ROT012_1/4_simulations/3.500/nplm_prod.log,c437-121.stampede2.tacc.utexas.edu,225696,29.155,148171.331,6,408
/20200120-US-sims_NPLM_rerun_stampede/US-1.3_5_0.2-NPLM-DOPC_196-300.00-5_0.0005_2000-EAM_2_ROT001_1/4_simulations/2.500/nplm_prod.log,c425-093.stampede2.tacc.utexas.edu,225039,29.133,148283.093,6,408
/20200120-US-sims_NPLM_rerun_stampede/US-1.3_5_0.2-NPLM-DOPC_196-300.00-5_0.0005_2000-EAM_2_ROT001_1/4_simulations/4.700/nplm_prod.log,c401-054.stampede2.tacc.utexas.edu,225039,29.184,148028.046,6,408
/20200120-US-sims_NPLM_rerun_stampede/US-1.3_5_0.2-NPLM-DOPC_196-300.00-5_0.0005_2000-EAM_2_ROT001_1/4_simulations/3.700/nplm_prod.log,c421-083.stampede2.tacc.utexas.edu,225039,29.153,148184.196,6,408
/20200120-US-sims_NPLM_rerun_stampede/US-1.3_5_0.2-NPLM-DOPC_196-300.00-5_0.0005_2000-EAM_2_ROT001_1/4_simulations/3.500/nplm_prod.log,c423-114.stampede2.tacc.utexas.edu,225039,29.127,148316.560,6,408
/20200120-US-sims_NPLM_rerun_stampede/US-1.3_5_0.2-NPLM-DOPC_196-300.00-5_0.0005_2000-EAM_2_ROT001_1/4_simulations/4.500/nplm_prod.log,c417-132.stampede2.tacc.utexas.edu,225039,29.171,148094.803,6,408
/20200120-US-sims_NPLM_rerun_stampede/US-1.3_5_0.2-NPLM-DOPC_196-300.00-5_0.0005_2000-EAM_2_ROT001_1/4_simulations/1.900/nplm_prod.log,c427-101.stampede2.tacc.utexas.edu,225039,29.306,147410.464,6,408
/20200120-US-sims_NPLM_rerun_stampede/US-1.3_5_0.2-NPLM-DOPC_196-300.00-5_0.0005_2000-EAM_2_ROT001_1/4_simulations/2.700/nplm_prod.log,c425-031.stampede2.tacc.utexas.edu,225039,29.218,147852.794,6,408
/20200120-US-sims_NPLM_rerun_stampede/US-1.3_5_0.2-NPLM-DOPC_196-300.00-5_0.0005_2000-EAM_2_ROT001_1/4_simulations/1.300/nplm_prod.log,c428-091.stampede2.tacc.utexas.edu,225039,28.982,149060.401,6,408
/20200120-US-sims_NPLM_rerun_stampede/US-1.3_5_0.2-NPLM-DOPC_196-300.00-5_0.0005_2000-EAM_2_ROT001_1/4_simulations/2.900/nplm_prod.log,c424-101.stampede2.tacc.utexas.edu,225039,29.279,147544.356,6,408
/20200120-US-sims_NPLM_rerun_stampede/US-1.3_5_0.2-NPLM-DOPC_196-300.00-5_0.0005_2000-EAM_2_ROT001_1/4_simulations/1.700/nplm_prod.log,c427-072.stampede2.tacc.utexas.edu,225039,29.020,148865.031,6,408
/20200120-US-sims_NPLM_rerun_stampede/US-1.3_5_0.2-NPLM-DOPC_196-300.00-5_0.0005_2000-EAM_2_ROT001_1/4_simulations/2.300/nplm_prod.log,c425-103.stampede2.tacc.utexas.edu,225039,29.194,147973.439,6,408
/20200120-US-sims_NPLM_rerun_stampede/US-1.3_5_0.2-NPLM-DOPC_196-300.00-5_0.0005_2000-EAM_2_ROT001_1/4_simulations/4.100/nplm_prod.log,c422-004.stampede2.tacc.utexas.edu,225039,30.049,143766.480,6,408
/20200120-US-sims_NPLM_rerun_stampede/US-1.3_5_0.2-NPLM-DOPC_196-300.00-5_0.0005_2000-EAM_2_ROT001_1/4_simulations/3.100/nplm_prod.log,c424-044.stampede2.tacc.utexas.edu,225039,29.259,147648.934,6,408
/20200120-US-sims_NPLM_rerun_stampede/US-1.3_5_0.2-NPLM-DOPC_196-300.00-5_0.0005_2000-EAM_2_ROT001_1/4_simulations/3.300/nplm_prod.log,c423-123.stampede2.tacc.utexas.edu,225039,29.254,147671.912,6,408
/20200120-US-sims_NPLM_rerun_stampede/US-1.3_5_0.2-NPLM-DOPC_196-300.00-5_0.0005_2000-EAM_2_ROT001_1/4_simulations/4.300/nplm_prod.log,c418-121.stampede2.tacc.utexas.edu,225039,29.235,147770.547,6,408
/20200120-US-sims_NPLM_rerun_stampede/US-1.3_5_0.2-NPLM-DOPC_196-300.00-5_0.0005_2000-EAM_2_ROT001_1/4_simulations/4.900/nplm_prod.log,c414-112.stampede2.tacc.utexas.edu,225039,29.311,147383.014,6,408
/20200120-US-sims_NPLM_rerun_stampede/US-1.3_5_0.2-NPLM-DOPC_196-300.00-5_0.0005_2000-EAM_2_ROT001_1/4_simulations/3.900/nplm_prod.log,c421-054.stampede2.tacc.utexas.edu,225039,29.351,147185.101,6,408
/20200120-US-sims_NPLM_rerun_stampede/US-1.3_5_0.2-NPLM-DOPC_196-300.00-5_0.0005_2000-EAM_2_ROT001_1/4_simulations/2.100/nplm_prod.log,c427-001.stampede2.tacc.utexas.edu,225039,29.891,144527.064,6,408
/20200120-US-sims_NPLM_rerun_stampede/US-1.3_5_0.2-NPLM-DOPC_196-300.00-5_0.0005_2000-EAM_2_ROT001_1/4_simulations/1.500/nplm_prod.log,c427-084.stampede2.tacc.utexas.edu,225039,28.922,149365.365,6,408
/20200128-unbiased_ROT012/NPLM_unb-1.300_2000-DOPC_196-300.00-5_0.0005_2000-EAM_2_ROT012_1/nplm_prod.log,swarm003.che.wisc.edu,225696,17.352,248960.217,1,28
/20200128-unbiased_ROT012/NPLM_unb-1.900_2000-DOPC_196-300.00-5_0.0005_2000-EAM_2_ROT012_1/nplm_prod.log,swarm001.che.wisc.edu,225696,16.942,254991.372,1,28
/20200128-unbiased_ROT012/NPLM_unb-2.100_2000-DOPC_196-300.00-5_0.0005_2000-EAM_2_ROT012_1/nplm_prod.log,swarm004.che.wisc.edu,225696,16.333,264502.392,1,28
/20200124-US-sims_NPLM_reverse_stampede/USrev-1.5_5_0.2-pullnplm-1.300_5.000-0.0005_2000-DOPC_196-EAM_2_ROT012_1/4_simulations/4.100/nplm_prod.log,c450-072.stampede2.tacc.utexas.edu,225696,29.669,145606.550,6,408
/20200124-US-sims_NPLM_reverse_stampede/USrev-1.5_5_0.2-pullnplm-1.300_5.000-0.0005_2000-DOPC_196-EAM_2_ROT012_1/4_simulations/3.100/nplm_prod.log,c403-064.stampede2.tacc.utexas.edu,225696,29.740,145258.561,6,408
/20200124-US-sims_NPLM_reverse_stampede/USrev-1.5_5_0.2-pullnplm-1.300_5.000-0.0005_2000-DOPC_196-EAM_2_ROT012_1/4_simulations/2.900/nplm_prod.log,c407-062.stampede2.tacc.utexas.edu,225696,29.839,144774.960,6,408
/20200124-US-sims_NPLM_reverse_stampede/USrev-1.5_5_0.2-pullnplm-1.300_5.000-0.0005_2000-DOPC_196-EAM_2_ROT012_1/4_simulations/5.900/nplm_prod.log,c427-072.stampede2.tacc.utexas.edu,225696,29.612,145886.214,6,408
/20200124-US-sims_NPLM_reverse_stampede/USrev-1.5_5_0.2-pullnplm-1.300_5.000-0.0005_2000-DOPC_196-EAM_2_ROT012_1/4_simulations/1.700/nplm_prod.log,c408-134.stampede2.tacc.utexas.edu,225696,29.514,146370.083,6,408
/20200124-US-sims_NPLM_reverse_stampede/USrev-1.5_5_0.2-pullnplm-1.300_5.000-0.0005_2000-DOPC_196-EAM_2_ROT012_1/4_simulations/5.300/nplm_prod.log,c464-013.stampede2.tacc.utexas.edu,225696,29.765,145139.189,6,408
/20200124-US-sims_NPLM_reverse_stampede/USrev-1.5_5_0.2-pullnplm-1.300_5.000-0.0005_2000-DOPC_196-EAM_2_ROT012_1/4_simulations/2.300/nplm_prod.log,c433-081.stampede2.tacc.utexas.edu,225696,29.661,145647.539,6,408
/20200124-US-sims_NPLM_reverse_stampede/USrev-1.5_5_0.2-pullnplm-1.300_5.000-0.0005_2000-DOPC_196-EAM_2_ROT012_1/4_simulations/2.100/nplm_prod.log,c432-063.stampede2.tacc.utexas.edu,225696,29.619,145852.928,6,408
/20200124-US-sims_NPLM_reverse_stampede/USrev-1.5_5_0.2-pullnplm-1.300_5.000-0.0005_2000-DOPC_196-EAM_2_ROT012_1/4_simulations/5.100/nplm_prod.log,c402-113.stampede2.tacc.utexas.edu,225696,29.639,145751.708,6,408
/20200124-US-sims_NPLM_reverse_stampede/USrev-1.5_5_0.2-pullnplm-1.300_5.000-0.0005_2000-DOPC_196-EAM_2_ROT012_1/4_simulations/1.500/nplm_prod.log,c466-013.stampede2.tacc.utexas.edu,225696,29.433,146774.669,6,408
/20200124-US-sims_NPLM_reverse_stampede/USrev-1.5_5_0.2-pullnplm-1.300_5.000-0.0005_2000-DOPC_196-EAM_2_ROT012_1/4_simulations/6.500/nplm_prod.log,c436-074.stampede2.tacc.utexas.edu,225696,29.640,145750.695,6,408
/20200124-US-sims_NPLM_reverse_stampede/USrev-1.5_5_0.2-pullnplm-1.300_5.000-0.0005_2000-DOPC_196-EAM_2_ROT012_1/4_simulations/3.300/nplm_prod.log,c425-114.stampede2.tacc.utexas.edu,225696,29.678,145563.604,6,408
/20200124-US-sims_NPLM_reverse_stampede/USrev-1.5_5_0.2-pullnplm-1.300_5.000-0.0005_2000-DOPC_196-EAM_2_ROT012_1/4_simulations/4.300/nplm_prod.log,c468-124.stampede2.tacc.utexas.edu,225696,29.670,145603.709,6,408
/20200124-US-sims_NPLM_reverse_stampede/USrev-1.5_5_0.2-pullnplm-1.300_5.000-0.0005_2000-DOPC_196-EAM_2_ROT012_1/4_simulations/4.900/nplm_prod.log,c401-114.stampede2.tacc.utexas.edu,225696,29.635,145775.988,6,408
/20200124-US-sims_NPLM_reverse_stampede/USrev-1.5_5_0.2-pullnplm-1.300_5.000-0.0005_2000-DOPC_196-EAM_2_ROT012_1/4_simulations/3.900/nplm_prod.log,c449-111.stampede2.tacc.utexas.edu,225696,29.869,144630.867,6,408
/20200124-US-sims_NPLM_reverse_stampede/USrev-1.5_5_0.2-pullnplm-1.300_5.000-0.0005_2000-DOPC_196-EAM_2_ROT012_1/4_simulations/4.700/nplm_prod.log,c417-064.stampede2.tacc.utexas.edu,225696,29.595,145969.356,6,408
/20200124-US-sims_NPLM_reverse_stampede/USrev-1.5_5_0.2-pullnplm-1.300_5.000-0.0005_2000-DOPC_196-EAM_2_ROT012_1/4_simulations/3.700/nplm_prod.log,c457-021.stampede2.tacc.utexas.edu,225696,30.002,143991.819,6,408
/20200124-US-sims_NPLM_reverse_stampede/USrev-1.5_5_0.2-pullnplm-1.300_5.000-0.0005_2000-DOPC_196-EAM_2_ROT012_1/4_simulations/6.100/nplm_prod.log,c432-133.stampede2.tacc.utexas.edu,225696,30.146,143303.198,6,408
/20200124-US-sims_NPLM_reverse_stampede/USrev-1.5_5_0.2-pullnplm-1.300_5.000-0.0005_2000-DOPC_196-EAM_2_ROT012_1/4_simulations/5.500/nplm_prod.log,c466-071.stampede2.tacc.utexas.edu,225696,29.664,145631.103,6,408
/20200124-US-sims_NPLM_reverse_stampede/USrev-1.5_5_0.2-pullnplm-1.300_5.000-0.0005_2000-DOPC_196-EAM_2_ROT012_1/4_simulations/2.500/nplm_prod.log,c444-041.stampede2.tacc.utexas.edu,225696,31.377,137678.879,6,408
/20200124-US-sims_NPLM_reverse_stampede/USrev-1.5_5_0.2-pullnplm-1.300_5.000-0.0005_2000-DOPC_196-EAM_2_ROT012_1/4_simulations/1.900/nplm_prod.log,c441-123.stampede2.tacc.utexas.edu,225696,29.273,147577.091,6,408
/20200124-US-sims_NPLM_reverse_stampede/USrev-1.5_5_0.2-pullnplm-1.300_5.000-0.0005_2000-DOPC_196-EAM_2_ROT012_1/4_simulations/2.700/nplm_prod.log,c452-021.stampede2.tacc.utexas.edu,225696,29.989,144053.002,6,408
/20200124-US-sims_NPLM_reverse_stampede/USrev-1.5_5_0.2-pullnplm-1.300_5.000-0.0005_2000-DOPC_196-EAM_2_ROT012_1/4_simulations/5.700/nplm_prod.log,c468-031.stampede2.tacc.utexas.edu,225696,29.655,145674.049,6,408
/20200124-US-sims_NPLM_reverse_stampede/USrev-1.5_5_0.2-pullnplm-1.300_5.000-0.0005_2000-DOPC_196-EAM_2_ROT012_1/4_simulations/6.300/nplm_prod.log,c401-052.stampede2.tacc.utexas.edu,225696,29.742,145250.412,6,408
/20200124-US-sims_NPLM_reverse_stampede/USrev-1.5_5_0.2-pullnplm-1.300_5.000-0.0005_2000-DOPC_196-EAM_2_ROT012_1/4_simulations/3.500/nplm_prod.log,c440-033.stampede2.tacc.utexas.edu,225696,29.721,145353.472,6,408
/20200124-US-sims_NPLM_reverse_stampede/USrev-1.5_5_0.2-pullnplm-1.300_5.000-0.0005_2000-DOPC_196-EAM_2_ROT012_1/4_simulations/4.500/nplm_prod.log,c453-073.stampede2.tacc.utexas.edu,225696,29.677,145569.457,6,408
/20200120-Unbiased_NPLM_correct_mdp/NPLM_unb-1.300_2000-DOPC_196-300.00-5_0.0005_2000-EAM_2_ROT001_1/nplm_prod.log,swarm009.che.wisc.edu,225039,16.389,263598.819,1,28
/20200120-Unbiased_NPLM_correct_mdp/NPLM_unb-1.300_2000-DOPC_196-300.00-5_0.0005_2000-EAM_2_ROT012_1/nplm_prod.log,swarm003.che.wisc.edu,225696,15.534,278091.382,1,28
/20200120-Unbiased_NPLM_correct_mdp/NPLM_unb-2.500_2000-DOPC_196-300.00-5_0.0005_2000-EAM_2_ROT012_1/nplm_prod.log,swarm004.che.wisc.edu,225696,16.393,263526.377,1,28
/20200120-Unbiased_NPLM_correct_mdp/NPLM_unb-2.500_2000-DOPC_196-300.00-5_0.0005_2000-EAM_2_ROT001_1/nplm_prod.log,swarm010.che.wisc.edu,225039,21.409,201782.794,1,28
/20200207-US-sims_NPLM_reverse_ROT001/USrev-1.5_5_0.2-pullnplm-1.300_5.000-0.0005_2000-DOPC_196-EAM_2_ROT001_1/4_simulations/2.500/nplm_prod.log,aci-114.chtc.wisc.edu,225039,23.304,185376.203,16,320
/20200207-US-sims_NPLM_reverse_ROT001/USrev-1.5_5_0.2-pullnplm-1.300_5.000-0.0005_2000-DOPC_196-EAM_2_ROT001_1/4_simulations/4.700/nplm_prod.log,aci-130.chtc.wisc.edu,225039,26.153,165184.675,16,320
/20200207-US-sims_NPLM_reverse_ROT001/USrev-1.5_5_0.2-pullnplm-1.300_5.000-0.0005_2000-DOPC_196-EAM_2_ROT001_1/4_simulations/3.700/nplm_prod.log,aci-193.chtc.wisc.edu,225039,22.809,189397.278,16,320
/20200207-US-sims_NPLM_reverse_ROT001/USrev-1.5_5_0.2-pullnplm-1.300_5.000-0.0005_2000-DOPC_196-EAM_2_ROT001_1/4_simulations/3.500/nplm_prod.log,aci-130.chtc.wisc.edu,225039,18.868,228963.782,16,320
/20200207-US-sims_NPLM_reverse_ROT001/USrev-1.5_5_0.2-pullnplm-1.300_5.000-0.0005_2000-DOPC_196-EAM_2_ROT001_1/4_simulations/4.500/nplm_prod.log,aci-193.chtc.wisc.edu,225039,22.473,192232.917,16,320
/20200207-US-sims_NPLM_reverse_ROT001/USrev-1.5_5_0.2-pullnplm-1.300_5.000-0.0005_2000-DOPC_196-EAM_2_ROT001_1/4_simulations/1.900/nplm_prod.log,aci-130.chtc.wisc.edu,225039,25.535,169180.398,16,320
/20200207-US-sims_NPLM_reverse_ROT001/USrev-1.5_5_0.2-pullnplm-1.300_5.000-0.0005_2000-DOPC_196-EAM_2_ROT001_1/4_simulations/2.700/nplm_prod.log,aci-129.chtc.wisc.edu,225039,22.997,187854.353,16,320
/20200207-US-sims_NPLM_reverse_ROT001/USrev-1.5_5_0.2-pullnplm-1.300_5.000-0.0005_2000-DOPC_196-EAM_2_ROT001_1/4_simulations/2.300/nplm_prod.log,aci-109.chtc.wisc.edu,225039,24.249,178149.783,16,320
/20200207-US-sims_NPLM_reverse_ROT001/USrev-1.5_5_0.2-pullnplm-1.300_5.000-0.0005_2000-DOPC_196-EAM_2_ROT001_1/4_simulations/2.900/nplm_prod.log,aci-130.chtc.wisc.edu,225039,25.341,79965.700,1,20
/20200207-US-sims_NPLM_reverse_ROT001/USrev-1.5_5_0.2-pullnplm-1.300_5.000-0.0005_2000-DOPC_196-EAM_2_ROT001_1/4_simulations/1.700/nplm_prod.log,aci-109.chtc.wisc.edu,225039,24.493,176378.047,16,320
/20200207-US-sims_NPLM_reverse_ROT001/USrev-1.5_5_0.2-pullnplm-1.300_5.000-0.0005_2000-DOPC_196-EAM_2_ROT001_1/4_simulations/4.100/nplm_prod.log,aci-130.chtc.wisc.edu,225039,22.767,189748.085,16,320
/20200207-US-sims_NPLM_reverse_ROT001/USrev-1.5_5_0.2-pullnplm-1.300_5.000-0.0005_2000-DOPC_196-EAM_2_ROT001_1/4_simulations/3.100/nplm_prod.log,aci-109.chtc.wisc.edu,225039,21.600,199997.162,16,320
/20200207-US-sims_NPLM_reverse_ROT001/USrev-1.5_5_0.2-pullnplm-1.300_5.000-0.0005_2000-DOPC_196-EAM_2_ROT001_1/4_simulations/4.900/nplm_prod.log,aci-129.chtc.wisc.edu,225039,22.540,191659.385,16,320
/20200207-US-sims_NPLM_reverse_ROT001/USrev-1.5_5_0.2-pullnplm-1.300_5.000-0.0005_2000-DOPC_196-EAM_2_ROT001_1/4_simulations/3.900/nplm_prod.log,aci-109.chtc.wisc.edu,225039,17.030,253664.964,16,320
/20200207-US-sims_NPLM_reverse_ROT001/USrev-1.5_5_0.2-pullnplm-1.300_5.000-0.0005_2000-DOPC_196-EAM_2_ROT001_1/4_simulations/3.300/nplm_prod.log,aci-193.chtc.wisc.edu,225039,22.277,193917.825,16,320
/20200207-US-sims_NPLM_reverse_ROT001/USrev-1.5_5_0.2-pullnplm-1.300_5.000-0.0005_2000-DOPC_196-EAM_2_ROT001_1/4_simulations/4.300/nplm_prod.log,aci-116.chtc.wisc.edu,225039,24.022,179832.526,16,320
/20200207-US-sims_NPLM_reverse_ROT001/USrev-1.5_5_0.2-pullnplm-1.300_5.000-0.0005_2000-DOPC_196-EAM_2_ROT001_1/4_simulations/1.500/nplm_prod.log,aci-149.chtc.wisc.edu,225039,23.724,182090.401,16,320
/20200207-US-sims_NPLM_reverse_ROT001/USrev-1.5_5_0.2-pullnplm-1.300_5.000-0.0005_2000-DOPC_196-EAM_2_ROT001_1/4_simulations/2.100/nplm_prod.log,aci-149.chtc.wisc.edu,225039,25.830,167245.857,16,320
/20200207-US-sims_NPLM_reverse_ROT001_copy/USrev-1.5_5_0.2-pullnplm-1.300_5.000-0.0005_2000-DOPC_196-EAM_2_ROT001_1/4_simulations/4.100/nplm_prod.log,aci-130.chtc.wisc.edu,225039,22.767,189748.085,16,320
/20200207-US-sims_NPLM_reverse_ROT001_copy/USrev-1.5_5_0.2-pullnplm-1.300_5.000-0.0005_2000-DOPC_196-EAM_2_ROT001_1/4_simulations/3.100/nplm_prod.log,aci-109.chtc.wisc.edu,225039,21.600,199997.162,16,320
/20200207-US-sims_NPLM_reverse_ROT001_copy/USrev-1.5_5_0.2-pullnplm-1.300_5.000-0.0005_2000-DOPC_196-EAM_2_ROT001_1/4_simulations/1.700/nplm_prod.log,aci-109.chtc.wisc.edu,225039,24.493,176378.047,16,320
/20200207-US-sims_NPLM_reverse_ROT001_copy/USrev-1.5_5_0.2-pullnplm-1.300_5.000-0.0005_2000-DOPC_196-EAM_2_ROT001_1/4_simulations/2.900/nplm_prod.log,aci-130.chtc.wisc.edu,225039,25.341,79965.700,1,20
/20200207-US-sims_NPLM_reverse_ROT001_copy/USrev-1.5_5_0.2-pullnplm-1.300_5.000-0.0005_2000-DOPC_196-EAM_2_ROT001_1/4_simulations/2.300/nplm_prod.log,aci-109.chtc.wisc.edu,225039,24.249,178149.783,16,320
/20200207-US-sims_NPLM_reverse_ROT001_copy/USrev-1.5_5_0.2-pullnplm-1.300_5.000-0.0005_2000-DOPC_196-EAM_2_ROT001_1/4_simulations/2.100/nplm_prod.log,aci-149.chtc.wisc.edu,225039,25.830,167245.857,16,320
/20200207-US-sims_NPLM_reverse_ROT001_copy/USrev-1.5_5_0.2-pullnplm-1.300_5.000-0.0005_2000-DOPC_196-EAM_2_ROT001_1/4_simulations/1.500/nplm_prod.log,aci-149.chtc.wisc.edu,225039,23.724,182090.401,16,320
/20200207-US-sims_NPLM_reverse_ROT001_copy/USrev-1.5_5_0.2-pullnplm-1.300_5.000-0.0005_2000-DOPC_196-EAM_2_ROT001_1/4_simulations/3.300/nplm_prod.log,aci-193.chtc.wisc.edu,225039,22.277,193917.825,16,320
/20200207-US-sims_NPLM_reverse_ROT001_copy/USrev-1.5_5_0.2-pullnplm-1.300_5.000-0.0005_2000-DOPC_196-EAM_2_ROT001_1/4_simulations/4.300/nplm_prod.log,aci-116.chtc.wisc.edu,225039,24.022,179832.526,16,320
/20200207-US-sims_NPLM_reverse_ROT001_copy/USrev-1.5_5_0.2-pullnplm-1.300_5.000-0.0005_2000-DOPC_196-EAM_2_ROT001_1/4_simulations/4.900/nplm_prod.log,aci-129.chtc.wisc.edu,225039,22.540,191659.385,16,320
/20200207-US-sims_NPLM_reverse_ROT001_copy/USrev-1.5_5_0.2-pullnplm-1.300_5.000-0.0005_2000-DOPC_196-EAM_2_ROT001_1/4_simulations/3.900/nplm_prod.log,aci-109.chtc.wisc.edu,225039,17.030,253664.964,16,320
/20200207-US-sims_NPLM_reverse_ROT001_copy/USrev-1.5_5_0.2-pullnplm-1.300_5.000-0.0005_2000-DOPC_196-EAM_2_ROT001_1/4_simulations/4.700/nplm_prod.log,aci-130.chtc.wisc.edu,225039,26.153,165184.675,16,320
/20200207-US-sims_NPLM_reverse_ROT001_copy/USrev-1.5_5_0.2-pullnplm-1.300_5.000-0.0005_2000-DOPC_196-EAM_2_ROT001_1/4_simulations/3.700/nplm_prod.log,aci-193.chtc.wisc.edu,225039,22.809,189397.278,16,320
/20200207-US-sims_NPLM_reverse_ROT001_copy/USrev-1.5_5_0.2-pullnplm-1.300_5.000-0.0005_2000-DOPC_196-EAM_2_ROT001_1/4_simulations/2.500/nplm_prod.log,aci-114.chtc.wisc.edu,225039,23.304,185376.203,16,320
/20200207-US-sims_NPLM_reverse_ROT001_copy/USrev-1.5_5_0.2-pullnplm-1.300_5.000-0.0005_2000-DOPC_196-EAM_2_ROT001_1/4_simulations/2.700/nplm_prod.log,aci-129.chtc.wisc.edu,225039,22.997,187854.353,16,320
/20200207-US-sims_NPLM_reverse_ROT001_copy/USrev-1.5_5_0.2-pullnplm-1.300_5.000-0.0005_2000-DOPC_196-EAM_2_ROT001_1/4_simulations/1.900/nplm_prod.log,aci-130.chtc.wisc.edu,225039,25.535,169180.398,16,320
/20200207-US-sims_NPLM_reverse_ROT001_copy/USrev-1.5_5_0.2-pullnplm-1.300_5.000-0.0005_2000-DOPC_196-EAM_2_ROT001_1/4_simulations/3.500/nplm_prod.log,aci-130.chtc.wisc.edu,225039,18.868,228963.782,16,320
/20200207-US-sims_NPLM_reverse_ROT001_copy/USrev-1.5_5_0.2-pullnplm-1.300_5.000-0.0005_2000-DOPC_196-EAM_2_ROT001_1/4_simulations/4.500/nplm_prod.log,aci-193.chtc.wisc.edu,225039,22.473,192232.917,16,320
/20200330-unbiased_C12_at_minimum/NPLM_rev_unb-5.300_2000-1.5_5_0.2-pullnplm-1.300_5.000-0.0005_2000-DOPC_196-EAM_2_ROT012_1/nplm_prod.log,swarm003.che.wisc.edu,225696,,,1,28
/20200330-unbiased_C12_at_minimum/NPLM_unb-5.300_2000-DOPC_196-300.00-5_0.0005_2000-EAM_2_ROT012_1/nplm_prod.log,swarm008.che.wisc.edu,225696,,,1,28
/20200205-unbiased_ROT001/NPLM_unb-1.700_2000-DOPC_196-300.00-5_0.0005_2000-EAM_2_ROT001_1/nplm_prod.log,swarm001.che.wisc.edu,225039,17.138,252072.909,1,28
/20200205-unbiased_ROT001/NPLM_unb-2.300_2000-DOPC_196-300.00-5_0.0005_2000-EAM_2_ROT001_1/nplm_prod.log,swarm009.che.wisc.edu,225039,17.320,249418.902,1,28
/20200205-unbiased_ROT001/NPLM_unb-2.100_2000-DOPC_196-300.00-5_0.0005_2000-EAM_2_ROT001_1/nplm_prod.log,swarm003.che.wisc.edu,225039,16.094,268429.175,1,28
/20200205-unbiased_ROT001/NPLM_unb-1.900_2000-DOPC_196-300.00-5_0.0005_2000-EAM_2_ROT001_1/nplm_prod.log,swarm007.che.wisc.edu,225039,18.179,237636.577,1,28

